…
    ✔ Reading from "test_meta".

    ✔ Range ''1. Overview&Chl''.

    ✔ Reading from "test_meta".

    ✔ Range ''2. Counts''.

    New names:
    ✔ Reading from "test_meta".
    ✔ Range ''3. Area''.
    New names:
    • `` -> `...4`

    # A tibble: 240 × 15
       sample_id type   w_slurry1 w_slurry2 m1    m2    filename  v_zoox  v_sw    c1
       <chr>     <chr>      <dbl>     <dbl> <chr> <chr> <chr>      <dbl> <dbl> <dbl>
     1 <NA>      blank       NA        NA   A1    A2    240313_1…     NA    NA    NA
     2 2TSML27P  sample      58        40.1 A3    A4    240313_1…    300   700    27
     3 2TSPL07P  sample      49.6      40.2 A5    A6    240313_1…    400   600    38
     4 2TSAL09P  sample      57.7      40.2 A7    A8    240313_1…    200   800    52
     5 2TSML26P  sample      46.9      40.1 A9    A10   240313_1…    200   800    38
     6 2TSAL07P  sample      49.7      40.1 A11   A12   240313_1…    400   600    69
     7 2TSAL06P  sample      49.8      40.2 B1    B2    240313_1…    200   800    46
     8 <NA>      blank       NA        NA   A1    A2    240314_1…     NA    NA    NA
     9 2ESPL20P  sample      48.2      40.1 A3    A4    240314_1…    500   500    83
    10 2ESPL10P  sample      48.2      40   A5    A6    240314_1…    300   700    53
    # ℹ 230 more rows
    # ℹ 5 more variables: c2 <dbl>, c3 <dbl>, c4 <dbl>, c5 <dbl>, c6 <dbl>
    # A tibble: 240 × 20
       sample_id type   w_slurry1 w_slurry2 m1    m2    filename  v_zoox  v_sw    c1
       <chr>     <chr>      <dbl>     <dbl> <chr> <chr> <chr>      <dbl> <dbl> <dbl>
     1 <NA>      blank       NA        NA   A1    A2    240313_1…     NA    NA    NA
     2 2TSML27P  sample      58        40.1 A3    A4    240313_1…    300   700    27
     3 2TSPL07P  sample      49.6      40.2 A5    A6    240313_1…    400   600    38
     4 2TSAL09P  sample      57.7      40.2 A7    A8    240313_1…    200   800    52
     5 2TSML26P  sample      46.9      40.1 A9    A10   240313_1…    200   800    38
     6 2TSAL07P  sample      49.7      40.1 A11   A12   240313_1…    400   600    69
     7 2TSAL06P  sample      49.8      40.2 B1    B2    240313_1…    200   800    46
     8 <NA>      blank       NA        NA   A1    A2    240314_1…     NA    NA    NA
     9 2ESPL20P  sample      48.2      40.1 A3    A4    240314_1…    500   500    83
    10 2ESPL10P  sample      48.2      40   A5    A6    240314_1…    300   700    53
    # ℹ 230 more rows
    # ℹ 10 more variables: c2 <dbl>, c3 <dbl>, c4 <dbl>, c5 <dbl>, c6 <dbl>,
    #   w_initial <dbl>, w1 <dbl>, w1_scratched <dbl>, w2 <dbl>, w2_scratched <dbl>
…
